map,risk,acause
diarrhea_rota,vacc_rota1,diarrhea
diptheria_dtp3,vacc_dpt3,diptheria
lri_dtp3,vacc_dpt3,lri
lri_pcv,vacc_pcv3,lri
measles_measles,vacc_mcv1,measles
rotavirus_rota,vacc_rota1,diarrhea_rotavirus
tetanus_dtp3,vacc_dpt3,tetanus
whooping_dtp3,vacc_dpt3,whooping
